Number_of_coefficients : 173
-4.362506E-10
-1.806376E-09
-5.570395E-09
-1.438565E-08
-3.295638E-08
-6.910595E-08
-1.351975E-07
-2.499214E-07
-4.404316E-07
-7.447577E-07
-1.214345E-06
-1.916484E-06
-2.936282E-06
-4.377722E-06
-6.363249E-06
-9.031219E-06
-1.253051E-05
-1.701159E-05
-2.261336E-05
-2.944542E-05
-3.756534E-05
-4.695136E-05
-5.747104E-05
-6.884722E-05
-8.062329E-05
-9.213046E-05
-1.024605E-04
-1.104477E-04
-1.146657E-04
-1.134418E-04
-1.048958E-04
-8.700583E-05
-5.770470E-05
-1.500875E-05
 4.282198E-05
 1.170947E-04
 2.084719E-04
 3.167458E-04
 4.406109E-04
 5.774503E-04
 7.231526E-04
 8.719815E-04
 1.016515E-03
 1.147675E-03
 1.254875E-03
 1.326278E-03
 1.349202E-03
 1.310656E-03
 1.198010E-03
 9.997812E-04
 7.065188E-04
 3.117440E-04
-1.870896E-04
-7.876690E-04
-1.481986E-03
-2.255648E-03
-3.087405E-03
-3.948936E-03
-4.804953E-03
-5.613663E-03
-6.327602E-03
-6.894852E-03
-7.260629E-03
-7.369196E-03
-7.166059E-03
-6.600352E-03
-5.627322E-03
-4.210811E-03
-2.325598E-03
 4.049921E-05
 2.884909E-03
 6.189061E-03
 9.917722E-03
 1.401898E-02
 1.842492E-02
 2.305300E-02
 2.780811E-02
 3.258523E-02
 3.727268E-02
 4.175574E-02
 4.592051E-02
 4.965794E-02
 5.286779E-02
 5.546228E-02
 5.736941E-02
 5.853568E-02
 5.892815E-02
 5.853568E-02
 5.736941E-02
 5.546228E-02
 5.286779E-02
 4.965794E-02
 4.592051E-02
 4.175574E-02
 3.727268E-02
 3.258523E-02
 2.780811E-02
 2.305300E-02
 1.842492E-02
 1.401898E-02
 9.917722E-03
 6.189061E-03
 2.884909E-03
 4.049921E-05
-2.325598E-03
-4.210811E-03
-5.627322E-03
-6.600352E-03
-7.166059E-03
-7.369196E-03
-7.260629E-03
-6.894852E-03
-6.327602E-03
-5.613663E-03
-4.804953E-03
-3.948936E-03
-3.087405E-03
-2.255648E-03
-1.481986E-03
-7.876690E-04
-1.870896E-04
 3.117440E-04
 7.065188E-04
 9.997812E-04
 1.198010E-03
 1.310656E-03
 1.349202E-03
 1.326278E-03
 1.254875E-03
 1.147675E-03
 1.016515E-03
 8.719815E-04
 7.231526E-04
 5.774503E-04
 4.406109E-04
 3.167458E-04
 2.084719E-04
 1.170947E-04
 4.282198E-05
-1.500875E-05
-5.770470E-05
-8.700583E-05
-1.048958E-04
-1.134418E-04
-1.146657E-04
-1.104477E-04
-1.024605E-04
-9.213046E-05
-8.062329E-05
-6.884722E-05
-5.747104E-05
-4.695136E-05
-3.756534E-05
-2.944542E-05
-2.261336E-05
-1.701159E-05
-1.253051E-05
-9.031219E-06
-6.363249E-06
-4.377722E-06
-2.936282E-06
-1.916484E-06
-1.214345E-06
-7.447577E-07
-4.404316E-07
-2.499214E-07
-1.351975E-07
-6.910595E-08
-3.295638E-08
-1.438565E-08
-5.570395E-09
-1.806376E-09
-4.362506E-10
