Number_of_coefficients        : 81
 3.457440E-14
 3.831370E-05
 6.191110E-03
 1.051380E-01
 4.723540E-01
 6.216380E-01
-9.875660E-02
-2.721470E-01
 2.676390E-01
-1.144010E-01
-4.082320E-02
 1.339470E-01
-1.556140E-01
 1.246160E-01
-6.748310E-02
 6.891060E-03
 4.047670E-02
-6.960810E-02
 7.778860E-02
-6.897200E-02
 4.944560E-02
-2.566820E-02
 3.093860E-03
 1.452820E-02
-2.536420E-02
 2.930760E-02
-2.752730E-02
 2.197030E-02
-1.425980E-02
 7.442880E-03
-9.484230E-04
-3.459670E-03
 5.618160E-03
-6.045170E-03
 5.375070E-03
-4.173890E-03
 2.860110E-03
-1.692180E-03
 7.927710E-04
-1.867710E-04
-1.616630E-04
 3.141850E-04
-3.394450E-04
 2.954060E-04
-2.245350E-04
 1.533900E-04
-9.525310E-05
 5.400360E-05
-2.805250E-05
 1.357180E-05
-6.421790E-06
 3.933540E-06
-2.993000E-06
 5.702440E-07
 6.322800E-07
 5.551450E-07
-1.024440E-07
-3.012550E-07
-2.010770E-07
-1.004210E-07
 7.274470E-08
 6.635240E-08
 5.617610E-08
 6.265540E-09
-1.232600E-08
-9.072750E-09
-6.057180E-09
 5.440420E-10
-2.313550E-10
 1.284550E-09
-1.312440E-10
 2.457840E-10
-1.274600E-10
 2.855330E-11
-2.402880E-11
 4.971000E-12
 2.238800E-12
 2.854990E-12
 9.142680E-12
 4.591740E-12
-3.700300E-11
