Number_of_coefficients        : 67
 3.662930E-15
 2.959740E-04
 2.071110E-02
 2.125970E-01
 6.211620E-01
 4.168100E-01
-3.367390E-01
-1.223280E-02
 2.091340E-01
-2.241230E-01
 1.343420E-01
-2.740160E-02
-6.408000E-02
 1.126570E-01
-1.183370E-01
 9.454960E-02
-5.588740E-02
 1.486790E-02
 1.953540E-02
-4.231690E-02
 5.211710E-02
-5.049540E-02
 4.067800E-02
-2.655820E-02
 1.177600E-02
 8.428430E-04
-1.004630E-02
 1.409030E-02
-1.571240E-02
 1.393620E-02
-1.031100E-02
 6.368940E-03
-2.996550E-03
 5.554840E-04
 9.425520E-04
-1.647170E-03
 1.791240E-03
-1.600410E-03
 1.255210E-03
-8.821030E-04
 5.555370E-04
-3.077230E-04
 1.418310E-04
-4.473140E-05
-2.822920E-06
 1.964110E-05
-2.050460E-05
 1.522810E-05
-9.267920E-06
 4.822640E-06
-1.126420E-06
-1.482800E-06
 1.055020E-06
 9.159640E-07
-3.674610E-07
-4.747540E-07
-2.115280E-07
 1.570130E-07
 1.404560E-07
 2.732610E-08
-2.033590E-08
-1.377830E-08
-4.394840E-09
 4.632860E-10
 5.389470E-11
 4.531390E-11
 2.683400E-10
