Number_of_coefficients        : 137

 6.000000e-07
 1.550000e-06
-2.260000e-06
-1.681000e-05
-3.362000e-05
-2.730000e-05
 1.156000e-05
 4.172000e-05
 9.780000e-06
-5.686000e-05
-5.186000e-05
 5.221000e-05
 1.089600e-04
-1.156000e-05
-1.646300e-04
-7.641000e-05
 1.909700e-04
 2.107600e-04
-1.530600e-04
-3.697900e-04
 1.884000e-05
 5.093800e-04
 2.285200e-04
-5.654100e-04
-5.766200e-04
 4.645600e-04
 9.720300e-04
-1.441200e-04
-1.317980e-03
-4.243900e-04
 1.482490e-03
 1.211050e-03
-1.320600e-03
-2.109650e-03
 7.084600e-04
 2.934580e-03
 4.142500e-04
-3.436330e-03
-2.004740e-03
 3.338580e-03
 3.887060e-03
-2.393840e-03
-5.743860e-03
 4.507300e-04
 7.136580e-03
 2.480270e-03
-7.556320e-03
-6.175280e-03
 6.500480e-03
 1.017010e-02
-3.564480e-03
-1.376920e-02
-1.465920e-03
 1.608440e-02
 8.542540e-03
-1.609100e-02
-1.731730e-02
 1.266040e-02
 2.715230e-02
-4.484890e-03
-3.718050e-02
-1.035460e-02
 4.641100e-02
 3.613660e-02
-5.386260e-02
-8.853480e-02
 5.870550e-02
 3.122420e-01
 4.395620e-01
 3.122420e-01
 5.870550e-02
-8.853480e-02
-5.386260e-02
 3.613660e-02
 4.641100e-02
-1.035460e-02
-3.718050e-02
-4.484890e-03
 2.715230e-02
 1.266040e-02
-1.731730e-02
-1.609100e-02
 8.542540e-03
 1.608440e-02
-1.465920e-03
-1.376920e-02
-3.564480e-03
 1.017010e-02
 6.500480e-03
-6.175280e-03
-7.556320e-03
 2.480270e-03
 7.136580e-03
 4.507300e-04
-5.743860e-03
-2.393840e-03
 3.887060e-03
 3.338580e-03
-2.004740e-03
-3.436330e-03
 4.142500e-04
 2.934580e-03
 7.084600e-04
-2.109650e-03
-1.320600e-03
 1.211050e-03
 1.482490e-03
-4.243900e-04
-1.317980e-03
-1.441200e-04
 9.720300e-04
 4.645600e-04
-5.766200e-04
-5.654100e-04
 2.285200e-04
 5.093800e-04
 1.884000e-05
-3.697900e-04
-1.530600e-04
 2.107600e-04
 1.909700e-04
-7.641000e-05
-1.646300e-04
-1.156000e-05
 1.089600e-04
 5.221000e-05
-5.186000e-05
-5.686000e-05
 9.780000e-06
 4.172000e-05
 1.156000e-05
-2.730000e-05
-3.362000e-05
-1.681000e-05
-2.260000e-06
 1.550000e-06
 6.000000e-07
