Number_of_coefficients        : 84
-8.520500e-17
-1.143210e-12
-1.741960e-09
-1.807040e-06
-7.186030e-05
-3.598070e-04
 6.716340e-06
 2.949060e-04
-6.794560e-04
 1.026380e-03
-1.098180e-03
 6.264950e-04
 5.748250e-04
-2.487640e-03
 4.790550e-03
-6.827730e-03
 7.685610e-03
-6.380660e-03
 2.147900e-03
 5.240920e-03
-1.520120e-02
 2.618280e-02
-3.568980e-02
 4.045830e-02
-3.667560e-02
 1.992440e-02
 1.594500e-02
-7.429800e-02
 7.519590e-01
 4.519810e-01
-2.194940e-01
 1.003100e-01
-3.422810e-02
-2.715580e-03
 2.376040e-02
-3.187550e-02
 3.095810e-02
-2.459680e-02
 1.546760e-02
-7.949350e-03
 1.845920e-04
 4.437260e-03
-6.197100e-03
 5.908470e-03
-4.409500e-03
 2.512530e-03
-8.366110e-04
-2.835250e-04
 7.872380e-04
-8.088560e-04
 5.767280e-04
-3.338720e-04
-2.542010e-04
 8.897750e-06
-4.481470e-06
 4.122120e-06
-3.863960e-06
 2.461080e-06
-1.437880e-06
 4.099890e-07
 3.308180e-07
-4.315670e-07
 5.797960e-07
-1.068490e-08
-3.309080e-08
 1.403960e-08
 8.371330e-09
 3.735400e-10
-3.092150e-09
-9.519500e-10
-4.274320e-10
 2.931040e-10
 1.487710e-10
-1.257050e-10
 3.717670e-11
 2.220770e-12
-9.855380e-12
 5.740750e-12
-1.068990e-12
-5.375300e-13
 2.697470e-13
-1.157930e-14
-5.327910e-16
 1.016140e-14
