Number_of_coefficients        : 47
 6.331640e-17
 1.730200e-10
 2.786700e-08
 4.008650e-08
-1.330720e-07
 4.236210e-08
 3.172810e-06
 3.636330e-04
 6.583200e-04
-1.258020e-03
 1.306330e-03
 1.270600e-04
-3.388930e-03
 7.525950e-03
-1.004480e-02
 7.593060e-03
 2.409190e-03
-1.972540e-02
 3.978480e-02
-5.320790e-02
 4.733350e-02
-4.871230e-03
-1.120130e-01
 6.467060e-01
 5.640490e-01
-1.466660e-01
 2.749230e-02
 2.642660e-02
-4.416190e-02
 3.963960e-02
-2.432270e-02
 7.987830e-03
 3.408430e-03
-8.049180e-03
 7.337650e-03
-4.118540e-03
 9.657860e-04
 7.855510e-04
-1.103140e-03
 7.411600e-04
 2.856310e-04
 2.339400e-08
-1.963490e-08
-9.938180e-08
 5.735580e-08
 2.355010e-08
-4.278460e-11
