Number_of_coefficients        : 78
-1.406970e-16
 1.365050e-13
 2.419310e-10
-9.112460e-09
-3.365450e-08
 2.832270e-08
-1.660910e-08
-2.268780e-08
 7.763440e-08
-1.456810e-07
 2.259050e-07
-2.134440e-07
 1.298310e-07
-1.429830e-08
-4.460540e-07
-1.263460e-05
-2.854310e-04
-2.453460e-04
 4.894140e-04
-7.134430e-04
 7.236580e-04
-3.045260e-04
-6.797140e-04
 2.185620e-03
-3.913540e-03
 5.293510e-03
-5.567570e-03
 4.035240e-03
 5.422260e-05
-6.469650e-03
 1.455390e-02
-2.272870e-02
 2.866190e-02
-2.950620e-02
 2.221470e-02
-3.724390e-03
-2.947980e-02
 8.401600e-02
-1.834790e-01
 5.170200e-01
 7.126940e-01
-1.323170e-01
 2.459670e-02
 2.071640e-02
-4.009520e-02
 4.419370e-02
-3.881640e-02
 2.836610e-02
-1.641210e-02
 5.620390e-03
 2.374280e-03
-6.964530e-03
 8.455270e-03
-7.459850e-03
 5.276430e-03
-2.781990e-03
 6.885160e-04
 6.474010e-04
-1.194620e-03
 1.143870e-03
-7.785020e-04
 3.605780e-04
-4.228340e-05
-3.703860e-04
-3.829940e-05
 1.354780e-07
-2.714230e-07
 3.740470e-07
-2.878110e-07
 2.260800e-07
-1.148130e-07
 1.801590e-08
 2.488760e-08
-4.324830e-08
 4.004990e-08
-2.862730e-08
-1.619690e-08
 2.083560e-10
